Bob Ross Data 8_6_19
…
What are the most crowded paintings, with the msot elements in them?

bob_ross_gathered %>%
      add_count(episode) %>%
      arrange(desc(n))

## # A tibble: 3,221 x 6
##    episode season episode_number title         element       n
##    <chr>    <int>          <int> <chr>         <chr>     <int>
##  1 S10E09      10              9 Mountain Oval Bushes       15
##  2 S10E09      10              9 Mountain Oval Cirrus       15
##  3 S10E09      10              9 Mountain Oval Clouds       15
##  4 S10E09      10              9 Mountain Oval Conifer      15
##  5 S10E09      10              9 Mountain Oval Deciduous    15
##  6 S10E09      10              9 Mountain Oval Framed       15
##  7 S10E09      10              9 Mountain Oval Guest        15
##  8 S10E09      10              9 Mountain Oval Lake         15
##  9 S10E09      10              9 Mountain Oval Mountain     15
## 10 S10E09      10              9 Mountain Oval Mountains    15
## #  with 3,211 more rows
…
painting_weights <- broom::tidy(svd_result, matrix = "u") %>%
      mutate(painting = rownames(binary_matrix)[row]) #switch to row

painting_weights %>%
      filter(PC == 1) %>%
      arrange(value)

## # A tibble: 398 x 4
##      row    PC   value painting             
##    <int> <int>   <dbl> <chr>                
##  1    26     1 -0.0951 Balmy Beach          
##  2   164     1 -0.0944 Island Paradise      
##  3    72     1 -0.0939 Crimson Tide         
##  4   319     1 -0.0920 Sunset Over The Waves
##  5   312     1 -0.0911 Storm On The Horizon 
##  6   276     1 -0.0902 Rowboat On The Beach 
##  7    57     1 -0.0897 Cliffside            
##  8    97     1 -0.0886 Ebb Tide             
##  9   314     1 -0.0886 Stormy Seas          
## 10    45     1 -0.0880 By The Sea           
## #  with 388 more rows
…
